UART_IP/simulation/qsim/project_uart.msim.vcd
$comment
	File created using the following command:
		vcd file project_uart.msim.vcd -direction
$end
$date
	Thu Dec 03 07:45:51 2020
$end
$version
	ModelSim Version 10.5b
$end
$timescale
	1ps
$end

$scope module reciever_vlg_vec_tst $end
$var reg 1 ! clearFE $end
$var reg 1 " clearPE $end
$var reg 1 # clk $end
$var reg 2 $ parityMode [1:0] $end
$var reg 1 % reset $end
$var reg 1 & rxIn_pin $end
$var reg 1 ' rx_clk_enable $end
$var reg 1 ( wordSize $end
$var wire 1 ) FE $end
$var wire 1 * PE $end
$var wire 1 + rx_data [8] $end
$var wire 1 , rx_data [7] $end
$var wire 1 - rx_data [6] $end
$var wire 1 . rx_data [5] $end
$var wire 1 / rx_data [4] $end
$var wire 1 0 rx_data [3] $end
$var wire 1 1 rx_data [2] $end
$var wire 1 2 rx_data [1] $end
$var wire 1 3 rx_data [0] $end
$var wire 1 4 rxwr_request $end
$var wire 1 5 state [3] $end
$var wire 1 6 state [2] $end
$var wire 1 7 state [1] $end
$var wire 1 8 state [0] $end

$scope module i1 $end
$var wire 1 9 gnd $end
$var wire 1 : vcc $end
$var wire 1 ; unknown $end
$var tri1 1 < devclrn $end
$var tri1 1 = devpor $end
$var tri1 1 > devoe $end
$var wire 1 ? clearPE~input_o $end
$var wire 1 @ clearFE~input_o $end
$var wire 1 A ~QUARTUS_CREATED_GND~I_combout $end
$var wire 1 B rx_clk_enable~input_o $end
$var wire 1 C clk~input_o $end
$var wire 1 D rx_enable_perBRD~q $end
$var wire 1 E clk_enable~combout $end
$var wire 1 F reset~input_o $end
$var wire 1 G state[2]~reg0_q $end
$var wire 1 H state[1]~reg0DUPLICATE_q $end
$var wire 1 I rxIn_pin~input_o $end
$var wire 1 J state[3]~reg0_q $end
$var wire 1 K bit7~1_combout $end
$var wire 1 L Mux7~0_combout $end
$var wire 1 M phase[3]~2_combout $end
$var wire 1 N Add0~0_combout $end
$var wire 1 O Mux5~0_combout $end
$var wire 1 P bit9~0_combout $end
$var wire 1 Q bit8~0_combout $end
$var wire 1 R bit8~q $end
$var wire 1 S bit9~1_combout $end
$var wire 1 T bit9~q $end
$var wire 1 U bit7~0_combout $end
$var wire 1 V bit7~2_combout $end
$var wire 1 W bit7~q $end
$var wire 1 X phase[3]~1_combout $end
$var wire 1 Y Add0~1_combout $end
$var wire 1 Z Mux6~0_combout $end
$var wire 1 [ Equal4~0_combout $end
$var wire 1 \ Mux0~1_combout $end
$var wire 1 ] Mux0~2_combout $end
$var wire 1 ^ nextstate~0_combout $end
$var wire 1 _ always1~0_combout $end
$var wire 1 ` Mux0~0_combout $end
$var wire 1 a Mux0~3_combout $end
$var wire 1 b state[3]~reg0DUPLICATE_q $end
$var wire 1 c phase[3]~0_combout $end
$var wire 1 d Mux4~0_combout $end
$var wire 1 e wordSize~input_o $end
$var wire 1 f parityMode[0]~input_o $end
$var wire 1 g parityMode[1]~input_o $end
$var wire 1 h Mux3~1_combout $end
$var wire 1 i Mux3~3_combout $end
$var wire 1 j Mux3~2_combout $end
$var wire 1 k Mux3~0_combout $end
$var wire 1 l state[0]~reg0_q $end
$var wire 1 m Mux2~3_combout $end
$var wire 1 n Mux2~2_combout $end
$var wire 1 o Mux2~1_combout $end
$var wire 1 p Mux2~0_combout $end
$var wire 1 q Mux2~4_combout $end
$var wire 1 r state[1]~reg0_q $end
$var wire 1 s Mux1~3_combout $end
$var wire 1 t Mux1~1_combout $end
$var wire 1 u Mux1~2_combout $end
$var wire 1 v Mux1~0_combout $end
$var wire 1 w state[2]~reg0DUPLICATE_q $end
$var wire 1 x rxwr_request~0_combout $end
$var wire 1 y rxwr_request~1_combout $end
$var wire 1 z rxwr_request~2_combout $end
$var wire 1 { rxwr_request~reg0_q $end
$var wire 1 | Decoder0~0_combout $end
$var wire 1 } rx_data[0]~0_combout $end
$var wire 1 ~ rx_data[0]~reg0_q $end
$var wire 1 !! rx_data[1]~1_combout $end
$var wire 1 "! rx_data[1]~reg0_q $end
$var wire 1 #! Decoder0~1_combout $end
$var wire 1 $! rx_data[2]~2_combout $end
$var wire 1 %! rx_data[2]~reg0_q $end
$var wire 1 &! Decoder0~2_combout $end
$var wire 1 '! rx_data[3]~3_combout $end
$var wire 1 (! rx_data[3]~reg0_q $end
$var wire 1 )! rx_data[4]~reg0_q $end
$var wire 1 *! rx_data[4]~4_combout $end
$var wire 1 +! rx_data[4]~reg0DUPLICATE_q $end
$var wire 1 ,! rx_data[5]~5_combout $end
$var wire 1 -! rx_data[5]~reg0_q $end
$var wire 1 .! Decoder0~3_combout $end
$var wire 1 /! rx_data[6]~6_combout $end
$var wire 1 0! rx_data[6]~reg0_q $end
$var wire 1 1! rx_data[7]~8_combout $end
$var wire 1 2! rx_data[7]~9_combout $end
$var wire 1 3! rx_data[7]~13_combout $end
$var wire 1 4! rx_data[7]~reg0_q $end
$var wire 1 5! rx_data[8]~11_combout $end
$var wire 1 6! rx_data[8]~12_combout $end
$var wire 1 7! rx_data[8]~10_combout $end
$var wire 1 8! rx_data[8]~7_combout $end
$var wire 1 9! rx_data[8]~reg0_q $end
$var wire 1 :! phase [3] $end
$var wire 1 ;! phase [2] $end
$var wire 1 <! phase [1] $end
$var wire 1 =! phase [0] $end
$var wire 1 >! nextstate [3] $end
$var wire 1 ?! nextstate [2] $end
$var wire 1 @! nextstate [1] $end
$var wire 1 A! nextstate [0] $end
$upscope $end
$upscope $end
$enddefinitions $end
#0
$dumpvars
x!
x"
0#
b10 $
0%
0&
0'
1(
1)
0*
03
02
01
00
0/
0.
0-
0,
0+
04
08
07
16
15
09
1:
x;
1<
1=
1>
x?
x@
0A
0B
0C
0D
0E
0F
0G
0H
0I
0J
0K
0L
1M
0N
0O
0P
0Q
0R
0S
0T
0U
0V
0W
0X
0Y
0Z
1[
1\
0]
0^
0_
0`
0a
0b
0c
0d
1e
0f
1g
1h
0i
1j
0k
0l
0m
1n
0o
0p
0q
0r
0s
1t
0u
0v
0w
0x
0y
0z
0{
0|
0}
0~
0!!
0"!
1#!
0$!
0%!
0&!
0'!
0(!
0)!
0*!
0+!
0,!
0-!
0.!
0/!
00!
01!
12!
03!
04!
05!
06!
07!
08!
09!
0=!
0<!
0;!
0:!
0A!
0@!
0?!
0>!
$end
#5000
1'
1B
1E
#10000
1#
0'
0B
1C
0E
#15000
1'
1B
1E
#20000
1%
0#
0'
1F
0B
0C
0E
#25000
1'
1B
1E
#30000
1#
0'
0B
1C
0E
#35000
1'
1B
1E
#40000
0%
0#
0'
0F
0B
0C
0E
#45000
1'
1B
1E
#50000
1#
0'
0B
1C
0E
#55000
1'
1B
1E
#60000
0#
0'
0B
0C
0E
#65000
1'
1B
1E
#70000
1#
0'
0B
1C
0E
#75000
1'
1B
1E
#80000
1&
0#
0'
1I
0B
0C
1`
1X
0E
1L
#85000
1'
1B
1E
1=!
1Y
0L
1Z
#90000
1#
0'
0B
1C
0E
#95000
1'
1B
1E
1<!
0=!
1L
#100000
0#
0'
0B
0C
0E
#105000
1'
1B
1E
1=!
0Y
1N
0L
1O
0Z
#110000
1#
0'
0B
1C
0E
#115000
1'
1B
1E
0<!
1;!
0=!
1L
#120000
0#
0'
0B
0C
0E
#125000
1'
1B
1E
1=!
1Y
0L
1Z
#130000
1#
0'
0B
1C
0E
#135000
1'
1B
1E
1<!
0=!
1L
#140000
0#
0'
0B
0C
0E
#145000
1'
1B
1E
1=!
0Y
1U
0N
0L
1d
0O
0Z
#150000
1#
0'
0B
1C
0E
#155000
1'
1B
1E
1:!
0<!
0;!
0=!
0U
1L
1P
1u
0d
1]
1d
1a
1v
#160000
0#
0'
0B
0C
0E
#165000
1'
1B
1E
1?!
1>!
1=!
1^
1Y
0L
0`
0\
1Z
#170000
1#
0'
0B
1C
0E
#175000
1'
1B
1E
1w
1b
1<!
0=!
1J
1G
05
06
0M
0X
1L
0P
1y
0d
0L
0Z
#180000
0#
0'
0B
0C
0E
#185000
1'
1B
1E
#190000
1#
0'
0B
1C
0E
#195000
1'
1B
1E
#200000
0#
0'
0B
0C
0E
#205000
1'
1B
1E
#210000
1#
0'
0B
1C
0E
#215000
1'
1B
1E
#220000
0#
0'
0B
0C
0E
#225000
1'
1B
1E
#230000
1#
0'
0B
1C
0E
#235000
1'
1B
1E
#240000
0#
0'
0B
0C
0E
#245000
1'
1B
1E
#250000
1#
0'
0B
1C
0E
#255000
1'
1B
1E
#260000
0#
0'
0B
0C
0E
#265000
1'
1B
1E
#270000
1#
0'
0B
1C
0E
#275000
1'
1B
1E
#280000
0#
0'
0B
0C
0E
#285000
1'
1B
1E
#290000
1#
0'
0B
1C
0E
#295000
1'
1B
1E
#300000
0#
0'
0B
0C
0E
#305000
1'
1B
1E
#310000
1#
0'
0B
1C
0E
#315000
1'
1B
1E
#320000
0#
0'
0B
0C
0E
#325000
1'
1B
1E
#330000
1#
0'
0B
1C
0E
#335000
1'
1B
1E
#340000
0#
0'
0B
0C
0E
#345000
1'
1B
1E
#350000
1#
0'
0B
1C
0E
#355000
1'
1B
1E
#360000
0#
0'
0B
0C
0E
#365000
1'
1B
1E
#370000
1#
0'
0B
1C
0E
#375000
1'
1B
1E
#380000
0#
0'
0B
0C
0E
#385000
1'
1B
1E
#390000
1#
0'
0B
1C
0E
#395000
1'
1B
1E
#400000
0#
0'
0B
0C
0E
#405000
1'
1B
1E
#410000
1#
0'
0B
1C
0E
#415000
1'
1B
1E
#420000
0#
0'
0B
0C
0E
#425000
1'
1B
1E
#430000
1#
0'
0B
1C
0E
#435000
1'
1B
1E
#440000
0#
0'
0B
0C
0E
#445000
1'
1B
1E
#450000
1#
0'
0B
1C
0E
#455000
1'
1B
1E
#460000
0#
0'
0B
0C
0E
#465000
1'
1B
1E
#470000
1#
0'
0B
1C
0E
#475000
1'
1B
1E
#480000
0#
0'
0B
0C
0E
#485000
1'
1B
1E
#490000
1#
0'
0B
1C
0E
#495000
1'
1B
1E
#500000
0#
0'
0B
0C
0E
#505000
1'
1B
1E
#510000
1#
0'
0B
1C
0E
#515000
1'
1B
1E
#520000
0#
0'
0B
0C
0E
#525000
1'
1B
1E
#530000
1#
0'
0B
1C
0E
#535000
1'
1B
1E
#540000
0#
0'
0B
0C
0E
#545000
1'
1B
1E
#550000
1#
0'
0B
1C
0E
#555000
1'
1B
1E
#560000
0#
0'
0B
0C
0E
#565000
1'
1B
1E
#570000
1#
0'
0B
1C
0E
#575000
1'
1B
1E
#580000
0#
0'
0B
0C
0E
#585000
1'
1B
1E
#590000
1#
0'
0B
1C
0E
#595000
1'
1B
1E
#600000
0#
0'
0B
0C
0E
#605000
1'
1B
1E
#610000
1#
0'
0B
1C
0E
#615000
1'
1B
1E
#620000
0#
0'
0B
0C
0E
#625000
1'
1B
1E
#630000
1#
0'
0B
1C
0E
#635000
1'
1B
1E
#640000
0#
0'
0B
0C
0E
#645000
1'
1B
1E
#650000
1#
0'
0B
1C
0E
#655000
1'
1B
1E
#660000
0#
0'
0B
0C
0E
#665000
1'
1B
1E
#670000
1#
0'
0B
1C
0E
#675000
1'
1B
1E
#680000
0#
0'
0B
0C
0E
#685000
1'
1B
1E
#690000
1#
0'
0B
1C
0E
#695000
1'
1B
1E
#700000
0#
0'
0B
0C
0E
#705000
1'
1B
1E
#710000
1#
0'
0B
1C
0E
#715000
1'
1B
1E
#720000
0#
0'
0B
0C
0E
#725000
1'
1B
1E
#730000
1#
0'
0B
1C
0E
#735000
1'
1B
1E
#740000
0#
0'
0B
0C
0E
#745000
1'
1B
1E
#750000
1#
0'
0B
1C
0E
#755000
1'
1B
1E
#760000
0#
0'
0B
0C
0E
#765000
1'
1B
1E
#770000
1#
0'
0B
1C
0E
#775000
1'
1B
1E
#780000
0#
0'
0B
0C
0E
#785000
1'
1B
1E
#790000
1#
0'
0B
1C
0E
#795000
1'
1B
1E
#800000
0&
0#
0'
0I
0B
0C
0j
1M
0E
1k
#805000
1'
1B
1E
1A!
0:!
0<!
0Y
1i
#810000
1#
0'
0B
1C
0E
#815000
1'
1B
1E
1l
18
02!
11!
1&!
0#!
0y
0t
0h
0]
1L
1K
#820000
0#
0'
0B
0C
0E
#825000
1'
1B
1E
1=!
1Y
0L
1Z
#830000
1#
0'
0B
1C
0E
#835000
1'
1B
1E
1<!
0=!
1L
#840000
0#
0'
0B
0C
0E
#845000
1'
1B
1E
1=!
0Y
1N
0L
1O
0Z
#850000
1#
0'
0B
1C
0E
#855000
1'
1B
1E
0<!
1;!
0=!
1L
#860000
0#
0'
0B
0C
0E
#865000
1'
1B
1E
1=!
1Y
0L
1Z
#870000
1#
0'
0B
1C
0E
#875000
1'
1B
1E
1<!
0=!
1L
#880000
0#
0'
0B
0C
0E
#885000
1'
1B
1E
1=!
0Y
1U
0N
0L
1d
0O
0Z
#890000
1#
0'
0B
1C
0E
#895000
1'
1B
1E
1:!
0<!
0;!
0=!
0U
1L
1P
0d
0k
1d
1k
#900000
0#
0'
0B
0C
0E
#905000
1'
1B
1E
1=!
1Y
0L
1Z
#910000
1#
0'
0B
1C
0E
#915000
1'
1B
1E
1<!
0=!
1L
0P
#920000
0#
0'
0B
0C
0E
#925000
1'
1B
1E
1=!
0Y
1N
0L
1O
0Z
#930000
1#
0'
0B
1C
0E
#935000
1'
1B
1E
0<!
1;!
0=!
1L
#940000
0#
0'
0B
0C
0E
#945000
1'
1B
1E
1=!
1Y
0L
1Z
#950000
1#
0'
0B
1C
0E
#955000
1'
1B
1E
1<!
0=!
1L
#960000
0#
0'
0B
0C
0E
#965000
1'
1B
1E
1=!
0^
0[
0Y
1U
0N
0L
0d
0u
1s
1p
1o
0n
0i
0O
0k
0Z
1q
#970000
1#
0'
0B
1C
0E
#975000
1'
1B
1E
1@!
0A!
0:!
0<!
0;!
0=!
1^
1[
0U
1d
1j
1k
0d
1u
0s
1L
0k
#980000
0#
0'
0B
0C
0E
#985000
1'
1B
1E
1=!
1H
1r
0l
08
17
0&!
1t
1h
1Y
0L
01!
12!
1Z
#990000
1#
0'
0B
1C
0E
#995000
1'
1B
1E
1<!
0=!
1L
#1000000
0#
0'
0B
0C
0E
#1005000
1'
1B
1E
1=!
0Y
1N
0L
1O
0Z
#1010000
1#
0'
0B
1C
0E
#1015000
1'
1B
1E
0<!
1;!
0=!
1L
#1020000
0#
0'
0B
0C
0E
#1025000
1'
1B
1E
1=!
1Y
0L
1Z
#1030000
1#
0'
0B
1C
0E
#1035000
1'
1B
1E
1<!
0=!
1L
#1040000
0#
0'
0B
0C
0E
#1045000
1'
1B
1E
1=!
0Y
1U
0N
0L
1d
0O
0Z
#1050000
1#
0'
0B
1C
0E
#1055000
1'
1B
1E
1:!
0<!
0;!
0=!
0U
1L
1P
0d
1d
#1060000
0#
0'
0B
0C
0E
#1065000
1'
1B
1E
1=!
1Y
0L
1Z
#1070000
1#
0'
0B
1C
0E
#1075000
1'
1B
1E
1<!
0=!
1L
0P
#1080000
0#
0'
0B
0C
0E
#1085000
1'
1B
1E
1=!
0Y
1N
0L
1O
0Z
#1090000
1#
0'
0B
1C
0E
#1095000
1'
1B
1E
0<!
1;!
0=!
1L
#1100000
0#
0'
0B
0C
0E
#1105000
1'
1B
1E
1=!
1Y
0L
1Z
#1110000
1#
0'
0B
1C
0E
#1115000
1'
1B
1E
1<!
0=!
1L
#1120000
0#
0'
0B
0C
0E
#1125000
1'
1B
1E
1=!
1|
0^
0[
0Y
1U
0N
0L
0d
0j
1i
0O
0Z
1k
#1130000
1#
0'
0B
1C
0E
#1135000
1'
1B
1E
1A!
0:!
0<!
0;!
0=!
0|
1^
1[
0U
1d
0d
1L
#1140000
0#
0'
0B
0C
0E
#1145000
1'
1B
1E
1=!
1l
18
1Y
0L
02!
11!
0t
0h
1Z
#1150000
1#
0'
0B
1C
0E
#1155000
1'
1B
1E
1<!
0=!
1L
#1160000
0#
0'
0B
0C
0E
#1165000
1'
1B
1E
1=!
0Y
1N
0L
1O
0Z
#1170000
1#
0'
0B
1C
0E
#1175000
1'
1B
1E
0<!
1;!
0=!
1L
#1180000
0#
0'
0B
0C
0E
#1185000
1'
1B
1E
1=!
1Y
0L
1Z
#1190000
1#
0'
0B
1C
0E
#1195000
1'
1B
1E
1<!
0=!
1L
#1200000
0#
0'
0B
0C
0E
#1205000
1'
1B
1E
1=!
0Y
1U
0N
0L
1d
0O
0Z
#1210000
1#
0'
0B
1C
0E
#1215000
1'
1B
1E
1:!
0<!
0;!
0=!
0U
1L
1P
0d
0k
1d
1k
#1220000
0#
0'
0B
0C
0E
#1225000
1'
1B
1E
1=!
1Y
0L
1Z
#1230000
1#
0'
0B
1C
0E
#1235000
1'
1B
1E
1<!
0=!
1L
0P
#1240000
0#
0'
0B
0C
0E
#1245000
1'
1B
1E
1=!
0Y
1N
0L
1O
0Z
#1250000
1#
0'
0B
1C
0E
#1255000
1'
1B
1E
0<!
1;!
0=!
1L
#1260000
0#
0'
0B
0C
0E
#1265000
1'
1B
1E
1=!
1Y
0L
1Z
#1270000
1#
0'
0B
1C
0E
#1275000
1'
1B
1E
1<!
0=!
1L
#1280000
0#
0'
0B
0C
0E
#1285000
1'
1B
1E
1=!
1|
0^
0[
0Y
1U
0N
0L
0d
0u
1s
0p
0o
1n
0i
1\
0O
0k
0Z
0q
0v
#1290000
1#
0'
0B
1C
0E
#1295000
1'
1B
1E
0?!
0@!
0A!
0:!
0<!
0;!
0=!
0|
1^
1[
0U
1d
1j
1k
0d
0s
0\
1L
0k
#1300000
0#
0'
0B
0C
0E
#1305000
1'
1B
1E
0w
1=!
0H
0G
0r
0l
08
07
16
1h
1c
1Y
0L
01!
1#!
1]
12!
1Z
#1310000
1#
0'
0B
1C
0E
#1315000
1'
1B
1E
1<!
0=!
1L
#1320000
0#
0'
0B
0C
0E
#1325000
1'
1B
1E
1=!
0Y
1N
0L
1O
0Z
#1330000
1#
0'
0B
1C
0E
#1335000
1'
1B
1E
0<!
1;!
0=!
1L
#1340000
0#
0'
0B
0C
0E
#1345000
1'
1B
1E
1=!
1Y
0L
1Z
#1350000
1#
0'
0B
1C
0E
#1355000
1'
1B
1E
1<!
0=!
1L
#1360000
0#
0'
0B
0C
0E
#1365000
1'
1B
1E
1=!
0Y
1U
0N
0L
1d
0O
0Z
#1370000
1#
0'
0B
1C
0E
#1375000
1'
1B
1E
1:!
0<!
0;!
0=!
0U
1L
1P
0d
1d
#1380000
0#
0'
0B
0C
0E
#1385000
1'
1B
1E
1=!
1Y
0L
1Z
#1390000
1#
0'
0B
1C
0E
#1395000
1'
1B
1E
1<!
0=!
1L
0P
#1400000
0#
0'
0B
0C
0E
#1405000
1'
1B
1E
1=!
0Y
1N
0L
1O
0Z
#1410000
1#
0'
0B
1C
0E
#1415000
1'
1B
1E
0<!
1;!
0=!
1L
#1420000
0#
0'
0B
0C
0E
#1425000
1'
1B
1E
1=!
1Y
0L
1Z
#1430000
1#
0'
0B
1C
0E
#1435000
1'
1B
1E
1<!
0=!
1L
#1440000
0#
0'
0B
0C
0E
#1445000
1'
1B
1E
1=!
0^
0[
0Y
1U
0N
0L
0d
0j
0O
0Z
1k
#1450000
1#
0'
0B
1C
0E
#1455000
1'
1B
1E
1A!
0:!
0<!
0;!
0=!
1^
1[
0U
1i
1d
0d
1L
#1460000
0#
0C
#1470000
1#
1C
1D
0E
#1480000
0#
0C
#1490000
1#
1C
#1500000
0'
0#
0B
0C
#1505000
1'
1B
#1510000
1#
0'
0B
1C
0D
#1515000
1'
1B
1E
1=!
1l
18
1Y
0L
02!
11!
1&!
0#!
0h
0]
0i
1Z
#1520000
0#
0'
0B
0C
0E
#1525000
1'
1B
1E
1<!
0=!
1L
#1530000
1#
0'
0B
1C
0E
#1535000
1'
1B
1E
1=!
0Y
1N
0L
1O
0Z
#1540000
0#
0'
0B
0C
0E
#1545000
1'
1B
1E
0<!
1;!
0=!
1L
#1550000
1#
0'
0B
1C
0E
#1555000
1'
1B
1E
1=!
1Y
0L
1Z
#1560000
0#
0'
0B
0C
0E
#1565000
1'
1B
1E
1<!
0=!
1L
#1570000
1#
0'
0B
1C
0E
#1575000
1'
1B
1E
1=!
0Y
1U
0N
0L
1d
0O
0Z
#1580000
0#
0'
0B
0C
0E
#1585000
1'
1B
1E
1:!
0<!
0;!
0=!
0U
1L
1P
0d
0k
1d
1k
#1590000
1#
0'
0B
1C
0E
#1595000
1'
1B
1E
1=!
1Y
0L
1Z
#1600000
0#
0'
0B
0C
0E
#1605000
1'
1B
1E
1<!
0=!
1L
0P
#1610000
1#
0'
0B
1C
0E
#1615000
1'
1B
1E
1=!
0Y
1N
0L
1O
0Z
#1620000
0#
0'
0B
0C
0E
#1625000
1'
1B
1E
0<!
1;!
0=!
1L
#1630000
1#
0'
0B
1C
0E
#1635000
1'
1B
1E
1=!
1Y
0L
1Z
#1640000
0#
0'
0B
0C
0E
#1645000
1'
1B
1E
1<!
0=!
1L
#1650000
1#
0'
0B
1C
0E
#1655000
1'
1B
1E
1=!
0^
0[
0Y
1U
0N
0L
0d
1s
1p
1o
0n
0O
0k
0Z
1q
#1660000
0#
0'
0B
0C
0E
#1665000
1'
1B
1E
1@!
0A!
0:!
0<!
0;!
0=!
1^
1[
0U
1d
1j
1k
0d
0s
1L
0k
#1670000
1#
0'
0B
1C
0E
#1675000
1'
1B
1E
1=!
1H
1r
0l
08
17
0&!
1Y
0L
01!
12!
1Z
#1680000
0#
0'
0B
0C
0E
#1685000
1'
1B
1E
1<!
0=!
1L
#1690000
1#
0'
0B
1C
0E
#1695000
1'
1B
1E
1=!
0Y
1N
0L
1O
0Z
#1700000
0#
0'
0B
0C
0E
#1705000
1'
1B
1E
0<!
1;!
0=!
1L
#1710000
1#
0'
0B
1C
0E
#1715000
1'
1B
1E
1=!
1Y
0L
1Z
#1720000
0#
0'
0B
0C
0E
#1725000
1'
1B
1E
1<!
0=!
1L
#1730000
1#
0'
0B
1C
0E
#1735000
1'
1B
1E
1=!
0Y
1U
0N
0L
1d
0O
0Z
#1740000
0#
0'
0B
0C
0E
#1745000
1'
1B
1E
1:!
0<!
0;!
0=!
0U
1L
1P
0d
1d
#1750000
1#
0'
0B
1C
0E
#1755000
1'
1B
1E
1=!
1Y
0L
1Z
#1760000
0#
0'
0B
0C
0E
#1765000
1'
1B
1E
1<!
0=!
1L
0P
#1770000
1#
0'
0B
1C
0E
#1775000
1'
1B
1E
1=!
0Y
1N
0L
1O
0Z
#1780000
0#
0'
0B
0C
0E
#1785000
1'
1B
1E
0<!
1;!
0=!
1L
#1790000
1#
0'
0B
1C
0E
#1795000
1'
1B
1E
1=!
1Y
0L
1Z
#1800000
0#
0'
0B
0C
0E
#1805000
1'
1B
1E
1<!
0=!
1L
#1810000
1#
0'
0B
1C
0E
#1815000
1'
1B
1E
1=!
1|
0^
0[
0Y
1U
0N
0L
0d
0j
0O
0Z
1k
#1820000
0#
0'
0B
0C
0E
#1825000
1'
1B
1E
1A!
0:!
0<!
0;!
0=!
0|
1^
1[
0U
1d
0d
1L
#1830000
1#
0'
0B
1C
0E
#1835000
1'
1B
1E
1=!
1l
18
1Y
0L
02!
11!
1t
1Z
#1840000
0#
0'
0B
0C
0E
#1845000
1'
1B
1E
1<!
0=!
1L
#1850000
1#
0'
0B
1C
0E
#1855000
1'
1B
1E
1=!
0Y
1N
0L
1O
0Z
#1860000
0#
0'
0B
0C
0E
#1865000
1'
1B
1E
0<!
1;!
0=!
1L
#1870000
1#
0'
0B
1C
0E
#1875000
1'
1B
1E
1=!
1Y
0L
1Z
#1880000
0#
0'
0B
0C
0E
#1885000
1'
1B
1E
1<!
0=!
1L
#1890000
1#
0'
0B
1C
0E
#1895000
1'
1B
1E
1=!
0Y
1U
0N
0L
1d
0O
0Z
#1900000
0#
0'
0B
0C
0E
#1905000
1'
1B
1E
1:!
0<!
0;!
0=!
0U
1L
1P
0d
0k
1d
1k
#1910000
1#
0'
0B
1C
0E
#1915000
1'
1B
1E
1=!
1Y
0L
1Z
#1920000
0#
0'
0B
0C
0E
#1925000
1'
1B
1E
1<!
0=!
1L
0P
#1930000
1#
0'
0B
1C
0E
#1935000
1'
1B
1E
1=!
0Y
1N
0L
1O
0Z
#1940000
0#
0'
0B
0C
0E
#1945000
1'
1B
1E
0<!
1;!
0=!
1L
#1950000
1#
0'
0B
1C
0E
#1955000
1'
1B
1E
1=!
1Y
0L
1Z
#1960000
0#
0'
0B
0C
0E
#1965000
1'
1B
1E
1<!
0=!
1L
#1970000
1#
0'
0B
1C
0E
#1975000
1'
1B
1E
1=!
1|
0^
0[
0Y
1U
0N
0L
0d
1u
1s
0p
0o
1n
1\
0O
0k
0Z
0a
0q
1v
#1980000
0#
0'
0B
0C
0E
#1985000
1'
1B
1E
1?!
0@!
0A!
0:!
0>!
0<!
0;!
0=!
0|
1[
0U
1d
1j
1k
0d
0s
1`
1L
0k
#1990000
1#
0'
0B
1C
0E
#1995000
1'
1B
1E
1w
0b
1=!
0J
0H
1G
0r
0l
08
07
15
06
0j
1h
1.!
1Y
0L
01!
1#!
0`
12!
1Z
#2000000
0#
0'
0B
0C
0E
#2005000
1'
1B
1E
1<!
0=!
1L
#2010000
1#
0'
0B
1C
0E
#2015000
1'
1B
1E
1=!
0Y
1N
0L
1O
0Z
#2020000
0#
0'
0B
0C
0E
#2025000
1'
1B
1E
0<!
1;!
0=!
1L
#2030000
1#
0'
0B
1C
0E
#2035000
1'
1B
1E
1=!
1Y
0L
1Z
#2040000
0#
0'
0B
0C
0E
#2045000
1'
1B
1E
1<!
0=!
1L
#2050000
1#
0'
0B
1C
0E
#2055000
1'
1B
1E
1=!
0Y
1U
0N
0L
1d
0O
0Z
#2060000
0#
0'
0B
0C
0E
#2065000
1'
1B
1E
1:!
0<!
0;!
0=!
0U
1L
1P
0d
1]
1d
#2070000
1#
0'
0B
1C
0E
#2075000
1'
1B
1E
1=!
1Y
0L
1Z
#2080000
0#
0'
0B
0C
0E
#2085000
1'
1B
1E
1<!
0=!
1L
0P
#2090000
1#
0'
0B
1C
0E
#2095000
1'
1B
1E
1=!
0Y
1N
0L
1O
0Z
#2100000
0#
0'
0B
0C
0E
#2105000
1'
1B
1E
0<!
1;!
0=!
1L
#2110000
1#
0'
0B
1C
0E
#2115000
1'
1B
1E
1=!
1Y
0L
1Z
#2120000
0#
0'
0B
0C
0E
#2125000
1'
1B
1E
1<!
0=!
1L
#2130000
1#
0'
0B
1C
0E
#2135000
1'
1B
1E
1=!
0[
0Y
1U
0N
0L
0d
1i
0\
0O
0Z
1k
#2140000
0#
0'
0B
0C
0E
#2145000
1'
1B
1E
1A!
0:!
0<!
0;!
0=!
1[
0U
1d
0]
0d
1\
1L
#2150000
1#
0'
0B
1C
0E
#2155000
1'
1B
1E
1=!
1l
18
1Y
0L
11!
1&!
0#!
0h
1`
02!
1Z
#2160000
0#
0'
0B
0C
0E
#2165000
1'
1B
1E
1<!
0=!
1L
#2170000
1#
0'
0B
1C
0E
#2175000
1'
1B
1E
1=!
0Y
1N
0L
1O
0Z
#2180000
0#
0'
0B
0C
0E
#2185000
1'
1B
1E
0<!
1;!
0=!
1L
#2190000
1#
0'
0B
1C
0E
#2195000
1'
1B
1E
1=!
1Y
0L
1Z
#2200000
0#
0'
0B
0C
0E
#2205000
1'
1B
1E
1<!
0=!
1L
#2210000
1#
0'
0B
1C
0E
#2215000
1'
1B
1E
1=!
0Y
1U
0N
0L
1d
0O
0Z
#2220000
0#
0'
0B
0C
0E
#2225000
1'
1B
1E
1:!
0<!
0;!
0=!
0U
1L
1P
0d
1d
#2230000
1#
0'
0B
1C
0E
#2235000
1'
1B
1E
1=!
1Y
0L
1Z
#2240000
0#
0'
0B
0C
0E
#2245000
1'
1B
1E
1<!
0=!
1L
0P
#2250000
1#
0'
0B
1C
0E
#2255000
1'
1B
1E
1=!
0Y
1N
0L
1O
0Z
#2260000
0#
0'
0B
0C
0E
#2265000
1'
1B
1E
0<!
1;!
0=!
1L
#2270000
1#
0'
0B
1C
0E
#2275000
1'
1B
1E
1=!
1Y
0L
1Z
#2280000
0#
0'
0B
0C
0E
#2285000
1'
1B
1E
1<!
0=!
1L
#2290000
1#
0'
0B
1C
0E
#2295000
1'
1B
1E
1=!
0[
0Y
1U
0N
0L
0d
1s
1p
1o
0n
0i
0`
0\
0O
0Z
0k
1q
#2300000
0#
0'
0B
0C
0E
#2305000
1'
1B
1E
1@!
0A!
0:!
0<!
0;!
0=!
1[
0U
1d
1j
0d
0s
1`
1\
1L
#2310000
1#
0'
0B
1C
0E
#2315000
1'
1B
1E
1=!
1H
1r
0l
08
17
0&!
1h
1Y
0L
16!
15!
01!
12!
1Z
#2320000
0#
0'
0B
0C
0E
#2325000
1'
1B
1E
1<!
0=!
1L
#2330000
1#
0'
0B
1C
0E
#2335000
1'
1B
1E
1=!
0Y
1N
0L
1O
0Z
#2340000
0#
0'
0B
0C
0E
#2345000
1'
1B
1E
0<!
1;!
0=!
1L
#2350000
1#
0'
0B
1C
0E
#2355000
1'
1B
1E
1=!
1Y
0L
1Z
#2360000
0#
0'
0B
0C
0E
#2365000
1'
1B
1E
1<!
0=!
1L
#2370000
1#
0'
0B
1C
0E
#2375000
1'
1B
1E
1=!
0Y
1U
0N
0L
1d
0O
0Z
#2380000
0#
0'
0B
0C
0E
#2385000
1'
1B
1E
1:!
0<!
0;!
0=!
0U
1L
1P
0d
1d
#2390000
1#
0'
0B
1C
0E
#2395000
1'
1B
1E
1=!
1Y
0L
1Z
#2400000
0#
0'
0B
0C
0E
#2405000
1'
1B
1E
1<!
0=!
1L
0P
#2410000
1#
0'
0B
1C
0E
#2415000
1'
1B
1E
1=!
0Y
1N
0L
1O
0Z
#2420000
0#
0'
0B
0C
0E
